EESchema Schematic File Version 4
EELAYER 30 0
EELAYER END
$Descr User 11789 8268
encoding utf-8
Sheet 1 1
Title ""
Date ""
Rev ""
Comp ""
Comment1 ""
Comment2 ""
Comment3 ""
Comment4 ""
$EndDescr
Wire Wire Line
	4700 3600 4700 3200
Text Label 4700 3600 0    10   ~ 0
GND
Wire Wire Line
	7200 3600 7200 3200
Text Label 7200 3600 0    10   ~ 0
GND
Wire Wire Line
	6000 2900 5400 2900
Wire Wire Line
	5400 2900 4700 2900
Connection ~ 5400 2900
Wire Wire Line
	6400 2900 6500 2900
Connection ~ 6500 2900
Wire Wire Line
	4700 2800 5000 2800
Wire Wire Line
	5000 2800 5000 2300
Wire Wire Line
	5000 2300 5400 2300
Wire Wire Line
	5400 2300 5700 2300
Connection ~ 5400 2300
Wire Wire Line
	6100 2300 6500 2300
Wire Wire Line
	6500 2300 6900 2300
Wire Wire Line
	6900 2300 6900 2800
Wire Wire Line
	6900 2800 7200 2800
Connection ~ 6500 2300
Wire Wire Line
	4700 2700 4900 2700
Wire Wire Line
	4900 1800 4900 2700
Text Label 4700 2700 0    10   ~ 0
+3V3
Wire Wire Line
	5800 2100 5800 1800
Text Label 5800 2100 0    10   ~ 0
+3V3
Wire Wire Line
	6100 2500 6100 2700
Text Label 6100 2500 0    10   ~ 0
+3V3
Wire Wire Line
	5400 1800 5400 1900
Text Label 5400 1800 0    10   ~ 0
+3V3
Wire Wire Line
	5800 3200 5800 3100
Text Label 5800 3200 0    10   ~ 0
+3V3
Wire Wire Line
	6100 3700 6100 3900
Text Label 6100 3700 0    10   ~ 0
+3V3
Wire Wire Line
	6500 1800 6500 1900
Text Label 6500 1800 0    10   ~ 0
+5V
Wire Wire Line
	7200 2700 7000 2700
Wire Wire Line
	7000 1800 7000 2700
Text Label 7200 2700 0    10   ~ 0
+5V
Wire Wire Line
	6100 3400 6200 3400
Wire Wire Line
	6200 3400 6200 3500
Wire Wire Line
	6200 3500 6500 3500
Wire Wire Line
	6500 3500 6800 3500
Wire Wire Line
	6800 3500 6800 3000
Wire Wire Line
	6800 3000 7200 3000
Connection ~ 6500 3500
Wire Wire Line
	5700 3400 5500 3400
Wire Wire Line
	5500 3400 5500 3500
Wire Wire Line
	5500 3500 5400 3500
Wire Wire Line
	5400 3500 5100 3500
Wire Wire Line
	5100 3500 5100 3000
Wire Wire Line
	5100 3000 4700 3000
Connection ~ 5400 3500
Wire Wire Line
	4700 3100 5000 3100
Wire Wire Line
	5000 3100 5000 4100
Wire Wire Line
	5000 4100 5400 4100
Wire Wire Line
	5400 4100 6000 4100
Connection ~ 5400 4100
Wire Wire Line
	6400 4100 6500 4100
Wire Wire Line
	6500 4100 6900 4100
Wire Wire Line
	6900 4100 6900 3100
Wire Wire Line
	6900 3100 7200 3100
Connection ~ 6500 4100
$Comp
L new-eagle-import:FRAME_A4 #FRAME1
U 1 1 73DA64CA
P 900 6500
F 0 "#FRAME1" H 900 6500 50  0001 C CNN
F 1 "FRAME_A4" H 900 6500 50  0001 C CNN
F 2 "" H 900 6500 50  0001 C CNN
F 3 "" H 900 6500 50  0001 C CNN
	1    900  6500
	1    0    0    -1  
$EndComp
$Comp
L new-eagle-import:GND #U$06
U 1 1 371C5F19
P 4700 3700
F 0 "#U$06" H 4700 3700 50  0001 C CNN
F 1 "GND" H 4640 3600 42  0000 L BNN
F 2 "" H 4700 3700 50  0001 C CNN
F 3 "" H 4700 3700 50  0001 C CNN
	1    4700 3700
	1    0    0    -1  
$EndComp
$Comp
L new-eagle-import:GND #U$07
U 1 1 BE1960E8
P 7200 3700
F 0 "#U$07" H 7200 3700 50  0001 C CNN
F 1 "GND" H 7140 3600 42  0000 L BNN
F 2 "" H 7200 3700 50  0001 C CNN
F 3 "" H 7200 3700 50  0001 C CNN
	1    7200 3700
	1    0    0    -1  
$EndComp
$Comp
L new-eagle-import:MOSFET-NREFLOW Q2
U 1 1 7D3B3C50
P 6200 2800
F 0 "Q2" H 6400 2825 42  0000 L BNN
F 1 "BSS138" H 6400 2750 42  0000 L BNN
F 2 "new:SOT23" H 6200 2800 50  0001 C CNN
F 3 "" H 6200 2800 50  0001 C CNN
	1    6200 2800
	0    1    1    0   
$EndComp
$Comp
L new-eagle-import:MOSFET-NREFLOW Q1
U 1 1 DD033775
P 5900 2200
F 0 "Q1" H 6100 2225 42  0000 L BNN
F 1 "BSS138" H 6100 2150 42  0000 L BNN
F 2 "new:SOT23" H 5900 2200 50  0001 C CNN
F 3 "" H 5900 2200 50  0001 C CNN
	1    5900 2200
	0    1    1    0   
$EndComp
$Comp
L new-eagle-import:+3V3 #+3V01
U 1 1 406B5002
P 4900 1700
F 0 "#+3V01" H 4900 1700 50  0001 C CNN
F 1 "+3V3" V 4800 1500 59  0000 L BNN
F 2 "" H 4900 1700 50  0001 C CNN
F 3 "" H 4900 1700 50  0001 C CNN
	1    4900 1700
	1    0    0    -1  
$EndComp
$Comp
L new-eagle-import:+3V3 #+3V02
U 1 1 37D36547
P 5800 1700
F 0 "#+3V02" H 5800 1700 50  0001 C CNN
F 1 "+3V3" V 5700 1500 59  0000 L BNN
F 2 "" H 5800 1700 50  0001 C CNN
F 3 "" H 5800 1700 50  0001 C CNN
	1    5800 1700
	1    0    0    -1  
$EndComp
$Comp
L new-eagle-import:+3V3 #+3V03
U 1 1 A56F219E
P 6100 2400
F 0 "#+3V03" H 6100 2400 50  0001 C CNN
F 1 "+3V3" V 6000 2200 59  0000 L BNN
F 2 "" H 6100 2400 50  0001 C CNN
F 3 "" H 6100 2400 50  0001 C CNN
	1    6100 2400
	-1   0    0    -1  
$EndComp
$Comp
L new-eagle-import:R-US_R0805 R2
U 1 1 748ED202
P 6500 2100
F 0 "R2" H 6350 2159 59  0000 L BNN
F 1 "10K" H 6350 1970 59  0000 L BNN
F 2 "new:R0805" H 6500 2100 50  0001 C CNN
F 3 "" H 6500 2100 50  0001 C CNN
	1    6500 2100
	0    -1   -1   0   
$EndComp
$Comp
L new-eagle-import:R-US_R0805 R3
U 1 1 D33015C9
P 6500 2700
F 0 "R3" H 6350 2759 59  0000 L BNN
F 1 "10K" H 6350 2570 59  0000 L BNN
F 2 "new:R0805" H 6500 2700 50  0001 C CNN
F 3 "" H 6500 2700 50  0001 C CNN
	1    6500 2700
	0    1    1    0   
$EndComp
$Comp
L new-eagle-import:R-US_R0805 R4
U 1 1 6DEE1610
P 5400 2700
F 0 "R4" H 5250 2759 59  0000 L BNN
F 1 "10K" H 5250 2570 59  0000 L BNN
F 2 "new:R0805" H 5400 2700 50  0001 C CNN
F 3 "" H 5400 2700 50  0001 C CNN
	1    5400 2700
	0    1    1    0   
$EndComp
$Comp
L new-eagle-import:R-US_R0805 R1
U 1 1 4C88E097
P 5400 2100
F 0 "R1" H 5250 2159 59  0000 L BNN
F 1 "10K" H 5250 1970 59  0000 L BNN
F 2 "new:R0805" H 5400 2100 50  0001 C CNN
F 3 "" H 5400 2100 50  0001 C CNN
	1    5400 2100
	0    -1   -1   0   
$EndComp
$Comp
L new-eagle-import:+3V3 #+3V04
U 1 1 E81106EE
P 5400 1700
F 0 "#+3V04" H 5400 1700 50  0001 C CNN
F 1 "+3V3" V 5300 1500 59  0000 L BNN
F 2 "" H 5400 1700 50  0001 C CNN
F 3 "" H 5400 1700 50  0001 C CNN
	1    5400 1700
	1    0    0    -1  
$EndComp
$Comp
L new-eagle-import:+3V3 #+3V05
U 1 1 D30003A2
P 5400 2400
F 0 "#+3V05" H 5400 2400 50  0001 C CNN
F 1 "+3V3" V 5300 2200 59  0000 L BNN
F 2 "" H 5400 2400 50  0001 C CNN
F 3 "" H 5400 2400 50  0001 C CNN
	1    5400 2400
	1    0    0    -1  
$EndComp
$Comp
L new-eagle-import:+5V #P+01
U 1 1 BCDF72C5
P 6500 1700
F 0 "#P+01" H 6500 1700 50  0001 C CNN
F 1 "+5V" V 6400 1500 59  0000 L BNN
F 2 "" H 6500 1700 50  0001 C CNN
F 3 "" H 6500 1700 50  0001 C CNN
	1    6500 1700
	1    0    0    -1  
$EndComp
$Comp
L new-eagle-import:+5V #P+02
U 1 1 339DE9D3
P 7000 1700
F 0 "#P+02" H 7000 1700 50  0001 C CNN
F 1 "+5V" V 6900 1500 59  0000 L BNN
F 2 "" H 7000 1700 50  0001 C CNN
F 3 "" H 7000 1700 50  0001 C CNN
	1    7000 1700
	1    0    0    -1  
$EndComp
$Comp
L new-eagle-import:+5V #P+03
U 1 1 00F05DF6
P 6500 2400
F 0 "#P+03" H 6500 2400 50  0001 C CNN
F 1 "+5V" V 6400 2200 59  0000 L BNN
F 2 "" H 6500 2400 50  0001 C CNN
F 3 "" H 6500 2400 50  0001 C CNN
	1    6500 2400
	1    0    0    -1  
$EndComp
$Comp
L new-eagle-import:PINHD-1X6CB JP3
U 1 1 ACD8E5B6
P 4600 2900
F 0 "JP3" H 4350 3325 59  0000 L BNN
F 1 "PINHD-1X6CB" H 4350 2500 59  0000 L BNN
F 2 "new:1X06-CLEANBIG" H 4600 2900 50  0001 C CNN
F 3 "" H 4600 2900 50  0001 C CNN
	1    4600 2900
	-1   0    0    1   
$EndComp
$Comp
L new-eagle-import:PINHD-1X6CB JP4
U 1 1 47274FB3
P 7300 2900
F 0 "JP4" H 7050 3325 59  0000 L BNN
F 1 "PINHD-1X6CB" H 7050 2500 59  0000 L BNN
F 2 "new:1X06-CLEANBIG" H 7300 2900 50  0001 C CNN
F 3 "" H 7300 2900 50  0001 C CNN
	1    7300 2900
	1    0    0    1   
$EndComp
$Comp
L new-eagle-import:MOSFET-NREFLOW Q3
U 1 1 04CA30AE
P 5900 3300
F 0 "Q3" H 6100 3325 42  0000 L BNN
F 1 "BSS138" H 6100 3250 42  0000 L BNN
F 2 "new:SOT23" H 5900 3300 50  0001 C CNN
F 3 "" H 5900 3300 50  0001 C CNN
	1    5900 3300
	0    1    1    0   
$EndComp
$Comp
L new-eagle-import:+3V3 #+3V06
U 1 1 F50F61D1
P 5800 3000
F 0 "#+3V06" H 5800 3000 50  0001 C CNN
F 1 "+3V3" V 5700 2800 59  0000 L BNN
F 2 "" H 5800 3000 50  0001 C CNN
F 3 "" H 5800 3000 50  0001 C CNN
	1    5800 3000
	-1   0    0    -1  
$EndComp
$Comp
L new-eagle-import:R-US_R0805 R5
U 1 1 F256FF88
P 5400 3300
F 0 "R5" H 5250 3359 59  0000 L BNN
F 1 "10K" H 5250 3170 59  0000 L BNN
F 2 "new:R0805" H 5400 3300 50  0001 C CNN
F 3 "" H 5400 3300 50  0001 C CNN
	1    5400 3300
	0    1    1    0   
$EndComp
$Comp
L new-eagle-import:+3V3 #+3V07
U 1 1 A36165E5
P 5400 3000
F 0 "#+3V07" H 5400 3000 50  0001 C CNN
F 1 "+3V3" V 5300 2800 59  0000 L BNN
F 2 "" H 5400 3000 50  0001 C CNN
F 3 "" H 5400 3000 50  0001 C CNN
	1    5400 3000
	1    0    0    -1  
$EndComp
$Comp
L new-eagle-import:R-US_R0805 R6
U 1 1 63D5FDD5
P 6500 3300
F 0 "R6" H 6350 3359 59  0000 L BNN
F 1 "10K" H 6350 3170 59  0000 L BNN
F 2 "new:R0805" H 6500 3300 50  0001 C CNN
F 3 "" H 6500 3300 50  0001 C CNN
	1    6500 3300
	0    1    1    0   
$EndComp
$Comp
L new-eagle-import:+5V #P+04
U 1 1 A7FDB2D8
P 6500 3000
F 0 "#P+04" H 6500 3000 50  0001 C CNN
F 1 "+5V" V 6400 2800 59  0000 L BNN
F 2 "" H 6500 3000 50  0001 C CNN
F 3 "" H 6500 3000 50  0001 C CNN
	1    6500 3000
	1    0    0    -1  
$EndComp
$Comp
L new-eagle-import:MOSFET-NREFLOW Q4
U 1 1 951332B4
P 6200 4000
F 0 "Q4" H 6400 4025 42  0000 L BNN
F 1 "BSS138" H 6400 3950 42  0000 L BNN
F 2 "new:SOT23" H 6200 4000 50  0001 C CNN
F 3 "" H 6200 4000 50  0001 C CNN
	1    6200 4000
	0    1    1    0   
$EndComp
$Comp
L new-eagle-import:R-US_R0805 R7
U 1 1 99333350
P 6500 3900
F 0 "R7" H 6350 3959 59  0000 L BNN
F 1 "10K" H 6350 3770 59  0000 L BNN
F 2 "new:R0805" H 6500 3900 50  0001 C CNN
F 3 "" H 6500 3900 50  0001 C CNN
	1    6500 3900
	0    1    1    0   
$EndComp
$Comp
L new-eagle-import:+5V #P+05
U 1 1 33ACA7EC
P 6500 3600
F 0 "#P+05" H 6500 3600 50  0001 C CNN
F 1 "+5V" V 6400 3400 59  0000 L BNN
F 2 "" H 6500 3600 50  0001 C CNN
F 3 "" H 6500 3600 50  0001 C CNN
	1    6500 3600
	1    0    0    -1  
$EndComp
$Comp
L new-eagle-import:R-US_R0805 R8
U 1 1 B4E26408
P 5400 3900
F 0 "R8" H 5250 3959 59  0000 L BNN
F 1 "10K" H 5250 3770 59  0000 L BNN
F 2 "new:R0805" H 5400 3900 50  0001 C CNN
F 3 "" H 5400 3900 50  0001 C CNN
	1    5400 3900
	0    1    1    0   
$EndComp
$Comp
L new-eagle-import:+3V3 #+3V08
U 1 1 1B9F338C
P 5400 3600
F 0 "#+3V08" H 5400 3600 50  0001 C CNN
F 1 "+3V3" V 5300 3400 59  0000 L BNN
F 2 "" H 5400 3600 50  0001 C CNN
F 3 "" H 5400 3600 50  0001 C CNN
	1    5400 3600
	1    0    0    -1  
$EndComp
$Comp
L new-eagle-import:+3V3 #+3V09
U 1 1 21780286
P 6100 3600
F 0 "#+3V09" H 6100 3600 50  0001 C CNN
F 1 "+3V3" V 6000 3400 59  0000 L BNN
F 2 "" H 6100 3600 50  0001 C CNN
F 3 "" H 6100 3600 50  0001 C CNN
	1    6100 3600
	-1   0    0    -1  
$EndComp
Wire Wire Line
	6500 2900 7200 2900
$EndSCHEMATC
